name: Company
description: ''
endpoints:
  -
    httpMethods:
      - GET
    uri: api/company
    metadata:
      title: 'List/Search companies'
      description: ''
      authenticated: false
    headers:
      Content-Type: application/json
      Accept: application/json
    urlParameters: []
    queryParameters:
      'search_params[company_name]':
        name: 'search_params[company_name]'
        description: 'Search company by name.'
        required: false
        example: Master
        type: string
      'search_params[seller]':
        name: 'search_params[seller]'
        description: 'Search company by seller name.'
        required: false
        example: Iqbal
        type: string
      'search_params[business_type]':
        name: 'search_params[business_type]'
        description: 'Search company by business type.'
        required: false
        example: 1
        type: integer
      per_page:
        name: per_page
        description: 'Specify no of companies to be displayed per page, default is set to 20.'
        required: false
        example: 10
        type: integer
    bodyParameters: []
    responses:
      -
        status: 200
        content: '{"status":"Success","message":null,"data":{"companies":[{"id":1,"company_name":"Madray Millat","address":"230 Bilal Street, Ahmed Block","locality":"Garden Town","city":"Lahore","year_of_establishment":2020,"website":null,"user_id":3,"seller":{"id":3,"name":"Abdul Ahad Mirza","designation":null,"user_type":"corporate","deleted_at":null,"created_at":"2021-06-02 11:24 am"},"details":{"company_logo":"\/storage\/business\/logo\/images\/Nuw3rRSwrW8hFIWEy1g9I7AFYW8ZiGvzyeYfwDiS.png","description":null},"product_services":{"data":[{"id":4,"keywords":"[\"Denim Jeans\"]"},{"id":5,"keywords":"[\"Polo Shirts\"]"}]}},{"id":16,"company_name":"Dr. Willie Considine","address":"32214 Langworth Squares Apt. 811\nFadelland, MN 42767-1579","locality":"4Z2jKKA1yx","city":"Saidu Sharif","year_of_establishment":2020,"website":"https:\/\/mloB4OUWTe.com","user_id":94,"seller":{"id":94,"name":"Dr. Ila Stokes I","designation":null,"user_type":"corporate","deleted_at":null,"created_at":"2021-06-09 2:38 pm"},"details":null,"product_services":{"data":[]}},{"id":17,"company_name":"Mrs. Mara Schmeler MD","address":"1234 Grimes Springs\nEast Eugeniaview, UT 12870-5301","locality":"Yoy4mE2q3E","city":"Faisalabad","year_of_establishment":1975,"website":"https:\/\/yrT6WpnYqJ.com","user_id":95,"seller":{"id":95,"name":"Kaycee Rodriguez","designation":null,"user_type":"corporate","deleted_at":null,"created_at":"2021-06-09 2:38 pm"},"details":null,"product_services":{"data":[]}},{"id":18,"company_name":"Adeline Lakin III","address":"5894 Keebler Plaza Apt. 071\nWest Francistown, MS 12614","locality":"aRFJ68t6xk","city":"Faisalabad","year_of_establishment":1972,"website":"https:\/\/Iru7VsLCvk.com","user_id":96,"seller":{"id":96,"name":"Jayne Kohler","designation":null,"user_type":"corporate","deleted_at":null,"created_at":"2021-06-09 2:38 pm"},"details":null,"product_services":{"data":[]}},{"id":19,"company_name":"Cheyenne Lowe","address":"85036 Jerrold Crossroad\nSchulistmouth, CO 86630","locality":"acuA4qEGEJ","city":"Faisalabad","year_of_establishment":1995,"website":"https:\/\/HLXrvH4wFP.com","user_id":97,"seller":{"id":97,"name":"Makenzie Herman","designation":null,"user_type":"corporate","deleted_at":null,"created_at":"2021-06-09 2:38 pm"},"details":null,"product_services":{"data":[]}},{"id":20,"company_name":"Dr. Rolando Kling","address":"836 Justice Coves\nRutherfordmouth, AZ 33888","locality":"gwoX0OjDFR","city":"Peshawar","year_of_establishment":2011,"website":"https:\/\/kltL2edQRF.com","user_id":98,"seller":{"id":98,"name":"Tiffany Schiller","designation":null,"user_type":"corporate","deleted_at":null,"created_at":"2021-06-09 2:38 pm"},"details":null,"product_services":{"data":[]}},{"id":21,"company_name":"Elwin Jacobson","address":"127 Assunta Rapids\nNorth Greg, MI 83614","locality":"LeX6j07uUK","city":"Gujranwala","year_of_establishment":1970,"website":"https:\/\/O6diCH1fYe.com","user_id":99,"seller":{"id":99,"name":"Prof. Elouise Hermann","designation":null,"user_type":"corporate","deleted_at":null,"created_at":"2021-06-09 2:38 pm"},"details":null,"product_services":{"data":[]}},{"id":22,"company_name":"Camron Haley","address":"42246 Lakin Drives\nEast Aurelieview, DE 08153-9753","locality":"eRjPr0D2wc","city":"Islamabad","year_of_establishment":1994,"website":"https:\/\/YfhghVGyYU.com","user_id":100,"seller":{"id":100,"name":"Kristin Mayert","designation":null,"user_type":"corporate","deleted_at":null,"created_at":"2021-06-09 2:38 pm"},"details":null,"product_services":{"data":[]}},{"id":23,"company_name":"Sadie Brakus","address":"53303 Rippin Brooks\nMoorehaven, AR 46020-8353","locality":"gPQlvgiXNN","city":"Lahore","year_of_establishment":2001,"website":"https:\/\/9puBeA9x51.com","user_id":101,"seller":{"id":101,"name":"Waldo Dooley","designation":null,"user_type":"corporate","deleted_at":null,"created_at":"2021-06-09 2:38 pm"},"details":null,"product_services":{"data":[]}},{"id":24,"company_name":"Mohammed Hammes","address":"7928 Kulas Spur Suite 334\nWest Odellhaven, IL 39110-7877","locality":"0Pp6yCtBvZ","city":"Karachi","year_of_establishment":1993,"website":"https:\/\/iiNE7g76Sq.com","user_id":102,"seller":{"id":102,"name":"Cielo Reichel","designation":null,"user_type":"corporate","deleted_at":null,"created_at":"2021-06-09 2:38 pm"},"details":null,"product_services":{"data":[]}}],"paginator":{"current_page":1,"data":[{"id":1,"company_name":"Madray Millat","address":"230 Bilal Street, Ahmed Block","locality":"Garden Town","city":"Lahore","year_of_establishment":2020,"website":null,"user_id":3,"seller":{"id":3,"name":"Abdul Ahad Mirza","designation":null,"user_type":"corporate","deleted_at":null,"created_at":"2021-06-02 11:24 am"},"details":{"company_logo":"\/storage\/business\/logo\/images\/Nuw3rRSwrW8hFIWEy1g9I7AFYW8ZiGvzyeYfwDiS.png","description":null},"product_services":{"data":[{"id":4,"keywords":"[\"Denim Jeans\"]"},{"id":5,"keywords":"[\"Polo Shirts\"]"}]}},{"id":16,"company_name":"Dr. Willie Considine","address":"32214 Langworth Squares Apt. 811\nFadelland, MN 42767-1579","locality":"4Z2jKKA1yx","city":"Saidu Sharif","year_of_establishment":2020,"website":"https:\/\/mloB4OUWTe.com","user_id":94,"seller":{"id":94,"name":"Dr. Ila Stokes I","designation":null,"user_type":"corporate","deleted_at":null,"created_at":"2021-06-09 2:38 pm"},"details":null,"product_services":{"data":[]}},{"id":17,"company_name":"Mrs. Mara Schmeler MD","address":"1234 Grimes Springs\nEast Eugeniaview, UT 12870-5301","locality":"Yoy4mE2q3E","city":"Faisalabad","year_of_establishment":1975,"website":"https:\/\/yrT6WpnYqJ.com","user_id":95,"seller":{"id":95,"name":"Kaycee Rodriguez","designation":null,"user_type":"corporate","deleted_at":null,"created_at":"2021-06-09 2:38 pm"},"details":null,"product_services":{"data":[]}},{"id":18,"company_name":"Adeline Lakin III","address":"5894 Keebler Plaza Apt. 071\nWest Francistown, MS 12614","locality":"aRFJ68t6xk","city":"Faisalabad","year_of_establishment":1972,"website":"https:\/\/Iru7VsLCvk.com","user_id":96,"seller":{"id":96,"name":"Jayne Kohler","designation":null,"user_type":"corporate","deleted_at":null,"created_at":"2021-06-09 2:38 pm"},"details":null,"product_services":{"data":[]}},{"id":19,"company_name":"Cheyenne Lowe","address":"85036 Jerrold Crossroad\nSchulistmouth, CO 86630","locality":"acuA4qEGEJ","city":"Faisalabad","year_of_establishment":1995,"website":"https:\/\/HLXrvH4wFP.com","user_id":97,"seller":{"id":97,"name":"Makenzie Herman","designation":null,"user_type":"corporate","deleted_at":null,"created_at":"2021-06-09 2:38 pm"},"details":null,"product_services":{"data":[]}},{"id":20,"company_name":"Dr. Rolando Kling","address":"836 Justice Coves\nRutherfordmouth, AZ 33888","locality":"gwoX0OjDFR","city":"Peshawar","year_of_establishment":2011,"website":"https:\/\/kltL2edQRF.com","user_id":98,"seller":{"id":98,"name":"Tiffany Schiller","designation":null,"user_type":"corporate","deleted_at":null,"created_at":"2021-06-09 2:38 pm"},"details":null,"product_services":{"data":[]}},{"id":21,"company_name":"Elwin Jacobson","address":"127 Assunta Rapids\nNorth Greg, MI 83614","locality":"LeX6j07uUK","city":"Gujranwala","year_of_establishment":1970,"website":"https:\/\/O6diCH1fYe.com","user_id":99,"seller":{"id":99,"name":"Prof. Elouise Hermann","designation":null,"user_type":"corporate","deleted_at":null,"created_at":"2021-06-09 2:38 pm"},"details":null,"product_services":{"data":[]}},{"id":22,"company_name":"Camron Haley","address":"42246 Lakin Drives\nEast Aurelieview, DE 08153-9753","locality":"eRjPr0D2wc","city":"Islamabad","year_of_establishment":1994,"website":"https:\/\/YfhghVGyYU.com","user_id":100,"seller":{"id":100,"name":"Kristin Mayert","designation":null,"user_type":"corporate","deleted_at":null,"created_at":"2021-06-09 2:38 pm"},"details":null,"product_services":{"data":[]}},{"id":23,"company_name":"Sadie Brakus","address":"53303 Rippin Brooks\nMoorehaven, AR 46020-8353","locality":"gPQlvgiXNN","city":"Lahore","year_of_establishment":2001,"website":"https:\/\/9puBeA9x51.com","user_id":101,"seller":{"id":101,"name":"Waldo Dooley","designation":null,"user_type":"corporate","deleted_at":null,"created_at":"2021-06-09 2:38 pm"},"details":null,"product_services":{"data":[]}},{"id":24,"company_name":"Mohammed Hammes","address":"7928 Kulas Spur Suite 334\nWest Odellhaven, IL 39110-7877","locality":"0Pp6yCtBvZ","city":"Karachi","year_of_establishment":1993,"website":"https:\/\/iiNE7g76Sq.com","user_id":102,"seller":{"id":102,"name":"Cielo Reichel","designation":null,"user_type":"corporate","deleted_at":null,"created_at":"2021-06-09 2:38 pm"},"details":null,"product_services":{"data":[]}}],"first_page_url":"http:\/\/localhost:8000\/api\/company?search_params%5Bcompany_name%5D=Master&search_params%5Bseller%5D=Iqbal&search_params%5Bbusiness_type%5D=1&per_page=10&page=1","from":1,"last_page":2,"last_page_url":"http:\/\/localhost:8000\/api\/company?search_params%5Bcompany_name%5D=Master&search_params%5Bseller%5D=Iqbal&search_params%5Bbusiness_type%5D=1&per_page=10&page=2","links":[{"url":null,"label":"&laquo; Previous","active":false},{"url":"http:\/\/localhost:8000\/api\/company?search_params%5Bcompany_name%5D=Master&search_params%5Bseller%5D=Iqbal&search_params%5Bbusiness_type%5D=1&per_page=10&page=1","label":"1","active":true},{"url":"http:\/\/localhost:8000\/api\/company?search_params%5Bcompany_name%5D=Master&search_params%5Bseller%5D=Iqbal&search_params%5Bbusiness_type%5D=1&per_page=10&page=2","label":"2","active":false},{"url":"http:\/\/localhost:8000\/api\/company?search_params%5Bcompany_name%5D=Master&search_params%5Bseller%5D=Iqbal&search_params%5Bbusiness_type%5D=1&per_page=10&page=2","label":"Next &raquo;","active":false}],"next_page_url":"http:\/\/localhost:8000\/api\/company?search_params%5Bcompany_name%5D=Master&search_params%5Bseller%5D=Iqbal&search_params%5Bbusiness_type%5D=1&per_page=10&page=2","path":"http:\/\/localhost:8000\/api\/company","per_page":10,"prev_page_url":null,"to":10,"total":13}}}'
        headers:
          cache-control: 'no-cache, private'
          content-type: application/json
          x-ratelimit-limit: '60'
          x-ratelimit-remaining: '20'
          vary: Origin
        description: null
    responseFields: []
  -
    httpMethods:
      - GET
    uri: 'api/company/{id}'
    metadata:
      title: 'Company Details'
      description: 'Display the specified resource.'
      authenticated: false
    headers:
      Content-Type: application/json
      Accept: application/json
    urlParameters:
      id:
        name: id
        description: 'The ID of the company.'
        required: true
        example: quaerat
        type: string
    queryParameters: []
    bodyParameters: []
    responses:
      -
        status: 404
        content: '{"status":"Error","message":"Not found","data":null}'
        headers:
          cache-control: 'no-cache, private'
          content-type: application/json
          x-ratelimit-limit: '60'
          x-ratelimit-remaining: '19'
          vary: Origin
        description: null
    responseFields: []
