## Autogenerated by Scribe. DO NOT MODIFY.

name: Logistics
description: ''
endpoints:
  -
    httpMethods:
      - GET
    uri: 'api/logistics/driver/{driver}'
    metadata:
      title: 'Driver and his vehicle details'
      description: ''
      authenticated: true
    headers:
      Authorization: 'Bearer {YOUR_AUTH_KEY}'
      Content-Type: application/json
      Accept: application/json
    urlParameters:
      driver:
        name: driver
        description: ''
        required: true
        example: 14
        type: integer
    queryParameters: []
    bodyParameters: []
    responses:
      -
        status: 401
        content: '{"message":"Unauthenticated."}'
        headers:
          cache-control: 'no-cache, private'
          content-type: application/json
          vary: Origin
        description: null
    responseFields: []
  -
    httpMethods:
      - POST
    uri: api/logistics/driver
    metadata:
      title: 'Store Driver Info'
      description: 'Store driver and his vehicle info'
      authenticated: true
    headers:
      Authorization: 'Bearer {YOUR_AUTH_KEY}'
      Content-Type: application/json
      Accept: application/json
    urlParameters: []
    queryParameters: []
    bodyParameters:
      image_path:
        name: image_path
        description: 'The string returned by Upload Images API.'
        required: true
        example: eius
        type: string
      dob:
        name: dob
        description: 'Must be a valid date. Must be a valid date in the format <code>Y-m-d</code>.'
        required: true
        example: '2021-11-12'
        type: string
      license_no:
        name: license_no
        description: ''
        required: true
        example: voluptas
        type: string
      license_path:
        name: license_path
        description: 'The string returned by Upload Images API.'
        required: true
        example: delectus
        type: string
      date_of_expiry:
        name: date_of_expiry
        description: 'Must be a valid date. Must be a valid date in the format <code>Y-m-d</code>. Must be a date after <code>2021-0-5</code>.'
        required: true
        example: '2089-03-04'
        type: string
      cnic_front_path:
        name: cnic_front_path
        description: 'The string returned by Upload Images API.'
        required: true
        example: voluptatibus
        type: string
      cnic_back_path:
        name: cnic_back_path
        description: 'The string returned by Upload Images API.'
        required: true
        example: saepe
        type: string
      referral_code:
        name: referral_code
        description: ''
        required: false
        example: sed
        type: string
      vehicle_id:
        name: vehicle_id
        description: ''
        required: true
        example: et
        type: string
      company:
        name: company
        description: ''
        required: true
        example: sit
        type: string
      number_plate_no:
        name: number_plate_no
        description: ''
        required: true
        example: dolores
        type: string
      vehicle_image:
        name: vehicle_image
        description: 'The string returned by Upload Images API.'
        required: true
        example: perspiciatis
        type: string
      vehicle_reg_certificate:
        name: vehicle_reg_certificate
        description: 'The string returned by Upload Images API.'
        required: true
        example: commodi
        type: string
      vehicle_health_certificate:
        name: vehicle_health_certificate
        description: 'The string returned by Upload Images API.'
        required: true
        example: ex
        type: string
    responses: []
    responseFields: []
  -
    httpMethods:
      - PUT
    uri: 'api/logistics/driver/{driver}'
    metadata:
      title: 'Update driver and his vehicle details.'
      description: ''
      authenticated: true
    headers:
      Authorization: 'Bearer {YOUR_AUTH_KEY}'
      Content-Type: application/json
      Accept: application/json
    urlParameters:
      driver:
        name: driver
        description: ''
        required: true
        example: 5
        type: integer
    queryParameters: []
    bodyParameters:
      image_path:
        name: image_path
        description: 'The string returned by Upload Images API.'
        required: false
        example: pariatur
        type: string
      dob:
        name: dob
        description: 'Must be a valid date. Must be a valid date in the format <code>Y-m-d</code>.'
        required: true
        example: '2021-11-12'
        type: string
      license_no:
        name: license_no
        description: ''
        required: true
        example: odit
        type: string
      license_path:
        name: license_path
        description: 'The string returned by Upload Images API.'
        required: false
        example: voluptas
        type: string
      date_of_expiry:
        name: date_of_expiry
        description: 'Must be a valid date. Must be a valid date in the format <code>Y-m-d</code>. Must be a date after <code>2021-0-5</code>.'
        required: true
        example: '2093-05-31'
        type: string
      cnic_front_path:
        name: cnic_front_path
        description: 'The string returned by Upload Images API.'
        required: false
        example: earum
        type: string
      cnic_back_path:
        name: cnic_back_path
        description: 'The string returned by Upload Images API.'
        required: false
        example: ipsam
        type: string
      referral_code:
        name: referral_code
        description: ''
        required: false
        example: quia
        type: string
      vehicle_id:
        name: vehicle_id
        description: ''
        required: true
        example: repellat
        type: string
      company:
        name: company
        description: ''
        required: true
        example: ratione
        type: string
      number_plate_no:
        name: number_plate_no
        description: ''
        required: true
        example: laudantium
        type: string
      vehicle_image:
        name: vehicle_image
        description: 'The string returned by Upload Images API.'
        required: false
        example: non
        type: string
      vehicle_reg_certificate:
        name: vehicle_reg_certificate
        description: 'The string returned by Upload Images API.'
        required: false
        example: odio
        type: string
      vehicle_health_certificate:
        name: vehicle_health_certificate
        description: 'The string returned by Upload Images API.'
        required: false
        example: reprehenderit
        type: string
    responses: []
    responseFields: []
  -
    httpMethods:
      - POST
    uri: api/logistics/shipment-feedback
    metadata:
      title: 'Store Shipment Feedback'
      description: ''
      authenticated: false
    headers:
      Content-Type: application/json
      Accept: application/json
    urlParameters: []
    queryParameters: []
    bodyParameters: []
    responses: []
    responseFields: []
  -
    httpMethods:
      - GET
    uri: 'api/logistics/driver/{driver}/location'
    metadata:
      title: 'Get Driver''s Location'
      description: ''
      authenticated: false
    headers:
      Content-Type: application/json
      Accept: application/json
    urlParameters:
      driver:
        name: driver
        description: ''
        required: true
        example: 19
        type: integer
    queryParameters: []
    bodyParameters: []
    responses:
      -
        status: 401
        content: '{"message":"Unauthenticated."}'
        headers:
          cache-control: 'no-cache, private'
          content-type: application/json
          vary: Origin
        description: null
    responseFields: []
  -
    httpMethods:
      - POST
    uri: api/logistics/driver/location
    metadata:
      title: 'Save/Update Driver Location'
      description: ''
      authenticated: true
    headers:
      Authorization: 'Bearer {YOUR_AUTH_KEY}'
      Content-Type: application/json
      Accept: application/json
    urlParameters: []
    queryParameters: []
    bodyParameters: []
    responses: []
    responseFields: []
  -
    httpMethods:
      - POST
    uri: api/logistics/booking-request
    metadata:
      title: 'Store Booking Request for Logistics'
      description: ''
      authenticated: true
    headers:
      Authorization: 'Bearer {YOUR_AUTH_KEY}'
      Content-Type: application/json
      Accept: application/json
    urlParameters: []
    queryParameters: []
    bodyParameters:
      vehicle_id:
        name: vehicle_id
        description: ''
        required: true
        example: 6
        type: integer
      child_vehicle_id:
        name: child_vehicle_id
        description: ''
        required: false
        example: 4
        type: integer
      delivery_type:
        name: delivery_type
        description: ''
        required: true
        example: aliquam
        type: string
      pick_up_city_id:
        name: pick_up_city_id
        description: ''
        required: true
        example: 14
        type: integer
      shipper_name:
        name: shipper_name
        description: ''
        required: true
        example: quia
        type: string
      shipper_contact_number:
        name: shipper_contact_number
        description: ''
        required: true
        example: nesciunt
        type: string
      shipper_address:
        name: shipper_address
        description: ''
        required: true
        example: sit
        type: string
      drop_off_city_id:
        name: drop_off_city_id
        description: ''
        required: true
        example: 2
        type: integer
      receiver_name:
        name: receiver_name
        description: ''
        required: true
        example: reiciendis
        type: string
      receiver_contact_number:
        name: receiver_contact_number
        description: ''
        required: true
        example: sit
        type: string
      receiver_address:
        name: receiver_address
        description: ''
        required: true
        example: voluptatibus
        type: string
      detailed_description:
        name: detailed_description
        description: ''
        required: false
        example: ea
        type: string
      weight:
        name: weight
        description: ''
        required: true
        example: 5269.41243141
        type: number
      weight_unit:
        name: weight_unit
        description: ''
        required: true
        example: iste
        type: string
      volume:
        name: volume
        description: ''
        required: true
        example: 28.4905557
        type: number
      volume_unit:
        name: volume_unit
        description: ''
        required: true
        example: aut
        type: string
      departure_date:
        name: departure_date
        description: 'Must be a valid date. Must be a valid date in the format <code>Y-m-d</code>.'
        required: true
        example: '2021-11-12'
        type: string
      departure_time:
        name: departure_time
        description: 'Must be a valid date in the format <code>H:i</code>.'
        required: true
        example: '18:20'
        type: string
      bid_offer:
        name: bid_offer
        description: ''
        required: true
        example: !!float 8934610
        type: number
      comments_and_wishes:
        name: comments_and_wishes
        description: ''
        required: false
        example: tempora
        type: string
      terms_agreed:
        name: terms_agreed
        description: 'Must be one of <code>on</code>.'
        required: true
        example: 'on'
        type: string
      pick_up_country:
        name: pick_up_country
        description: ''
        required: false
        example: neque
        type: string
      drop_off_country:
        name: drop_off_country
        description: ''
        required: false
        example: nihil
        type: string
      item:
        name: item
        description: ''
        required: false
        example:
          - []
        type: 'object[]'
      'item[].product_id':
        name: 'item[].product_id'
        description: ''
        required: true
        example: 9
        type: integer
      'item[].type_of_packing':
        name: 'item[].type_of_packing'
        description: ''
        required: true
        example: vitae
        type: string
      'item[].no_of_packs':
        name: 'item[].no_of_packs'
        description: ''
        required: true
        example: 5
        type: integer
      'item[].description':
        name: 'item[].description'
        description: ''
        required: true
        example: voluptatum
        type: string
    responses: []
    responseFields: []
  -
    httpMethods:
      - GET
    uri: api/logistics/vehicles
    metadata:
      title: 'Vehicles List/Search'
      description: ''
      authenticated: false
    headers:
      Content-Type: application/json
      Accept: application/json
    urlParameters: []
    queryParameters:
      parent_id:
        name: parent_id
        description: 'integer. To get child vehicles'
        required: false
        example: et
        type: string
      per_page:
        name: per_page
        description: 'integer. No of vehicles to be fetched, default is set to 20.'
        required: false
        example: '5'
        type: string
    bodyParameters: []
    responses:
      -
        status: 200
        content: '{"status":"Success","message":null,"data":{"vehicles":[{"id":1,"name":"Motor Bike","parent_id":0,"image_path":"\/storage\/images\/vehicle\/motor_bike.jpg"},{"id":2,"name":"Pickup","parent_id":0,"image_path":"\/storage\/images\/vehicle\/pickup.jpg"},{"id":5,"name":"Shehzore","parent_id":0,"image_path":"\/storage\/images\/vehicle\/shehzore.jpg"},{"id":8,"name":"Mazda","parent_id":0,"image_path":"\/storage\/images\/vehicle\/Mazda.jpg"},{"id":14,"name":"Heavy Vehicle","parent_id":0,"image_path":"\/storage\/images\/vehicle\/heavy_vehicle.jpg"}],"paginator":{"current_page":1,"data":[{"id":1,"name":"Motor Bike","parent_id":0,"image_path":"\/storage\/images\/vehicle\/motor_bike.jpg"},{"id":2,"name":"Pickup","parent_id":0,"image_path":"\/storage\/images\/vehicle\/pickup.jpg"},{"id":5,"name":"Shehzore","parent_id":0,"image_path":"\/storage\/images\/vehicle\/shehzore.jpg"},{"id":8,"name":"Mazda","parent_id":0,"image_path":"\/storage\/images\/vehicle\/Mazda.jpg"},{"id":14,"name":"Heavy Vehicle","parent_id":0,"image_path":"\/storage\/images\/vehicle\/heavy_vehicle.jpg"}],"first_page_url":"http:\/\/localhost:8000\/api\/logistics\/vehicles?parent_id=et&per_page=5&page=1","from":1,"last_page":2,"last_page_url":"http:\/\/localhost:8000\/api\/logistics\/vehicles?parent_id=et&per_page=5&page=2","links":[{"url":null,"label":"&laquo; Previous","active":false},{"url":"http:\/\/localhost:8000\/api\/logistics\/vehicles?parent_id=et&per_page=5&page=1","label":"1","active":true},{"url":"http:\/\/localhost:8000\/api\/logistics\/vehicles?parent_id=et&per_page=5&page=2","label":"2","active":false},{"url":"http:\/\/localhost:8000\/api\/logistics\/vehicles?parent_id=et&per_page=5&page=2","label":"Next &raquo;","active":false}],"next_page_url":"http:\/\/localhost:8000\/api\/logistics\/vehicles?parent_id=et&per_page=5&page=2","path":"http:\/\/localhost:8000\/api\/logistics\/vehicles","per_page":"5","prev_page_url":null,"to":5,"total":6}}}'
        headers:
          cache-control: 'no-cache, private'
          content-type: application/json
          x-ratelimit-limit: '60'
          x-ratelimit-remaining: '11'
          vary: Origin
        description: null
    responseFields: []
